{
  "replace": false,
  "values": [
    "tardis:alabaster_slab",
    "tardis:tech_floor_plate_slab",
    "tardis:tech_floor_dark_pipes_slab",
    "tardis:tech_floor_dark_pattern_slab",
    "tardis:tech_wall_dark_blank_slab",
    "tardis:metal_grate_slab",
    "tardis:blue_concrete_slab",
    "tardis:gallifreyan_yellow_slab",
    "tardis:yellow_crystal_slab"
  ]
}