{
  "replace": false,
  "values": [
    "tardis:alabaster_stairs",
    "tardis:tech_floor_plate_stairs",
    "tardis:tech_floor_dark_pipes_stairs",
    "tardis:tech_floor_dark_pattern_stairs",
    "tardis:tech_wall_dark_blank_stairs",
    "tardis:metal_grate_stairs",
    "tardis:yellow_crystal_stairs"
  ]
}