{
	"parent":"block/cube_bottom_top",
	"textures":{
		"bottom":"tardis:blocks/technology/tech_floor_plate",
		"top":"tardis:blocks/technology/tech_floor_plate",
		"side":"tardis:blocks/technology/airlock_top"
	}
}