{
  "display": {
    "title": {
      "translate": "advancements.tardis.tardis_mod"
    },
    "description": {
      "translate": "advancements.tardis.tardis_mod.desc"
    },
    "icon": {
      "item": "tardis:broken_exterior"
    },
    "frame": "task",
    "announce_to_chat": false,
    "show_toast": false,
    "background": "tardis:textures/blocks/roundels/roundel_chiselled_quartz_block.png"
  },
  "criteria": {
    "tardis_mod": {
      "trigger": "obtain_tardis"
    }
  }
}