{
	"lines":[
	"Security Submenu"
	,""
	," Our first submenu, this holds security- related things"
	,""
	,"Toggle Alarm"
	,""
	," Turns on or off your time-ship's alarm. This is triggered when something your"
	]
}