{
	"lines":[
	"time-ship deems hostile enters it."
	,""
	,"Scan for Life Signs"
	,""
	," In the event your time-ship is entered unexpectedly, it may benefit you to have a count of your adversaries."
	,"It accounts for all living beings."
	]
}