{
	"repair":"false",
	"ingredients":[
		"tardis:xion_crystal",
		"minecraft:redstone",
		"minecraft:redstone",
		"minecraft:iron_nugget",
		"minecraft:iron_nugget"
	],
	"result":{
		"item":"tardis:sonic_emitter"
	}
}