{
	"lines":[
	"Timeship Loyalty (Cont.)"
	,""
	," Additionally, a loyal Timeship will attempt to save its pilot from death if the latter is mortally wounded."
	," Overall, if treat your Timeship well, then it will do so in return."
	]
}