
   {
  "type": "minecraft:block",
  "pools": [
    {
    "name":"tardis:roundel_offset_concrete_brown",
      "rolls": 1,
      "entries": [
        {
          "type": "minecraft:item",
          "name": "tardis:roundel_offset_concrete_brown"
        }
      ]
    }
  ]
}
    